Error: Type Mismatch
   ╭─[assignment-bool-int.txt:2:7]
   │
 1 │ let foo: bool = true;
   ·          ──┬─  
   ·            ╰─── Expected type `bool`,
 2 │ foo = 0;
   ·       ┬  
   ·       ╰── but expression is of type `int`
───╯
